<?xml version="1.0" encoding="UTF-8" standalone="no"?>
<!-- Created with Inkscape (http://www.inkscape.org/) -->

<svg
   xmlns:dc="http://purl.org/dc/elements/1.1/"
   xmlns:cc="http://creativecommons.org/ns#"
   xmlns:rdf="http://www.w3.org/1999/02/22-rdf-syntax-ns#"
   xmlns:svg="http://www.w3.org/2000/svg"
   xmlns="http://www.w3.org/2000/svg"
   xmlns:sodipodi="http://sodipodi.sourceforge.net/DTD/sodipodi-0.dtd"
   xmlns:inkscape="http://www.inkscape.org/namespaces/inkscape"
   width="48px"
   height="48px"
   id="svg2985"
   version="1.1"
   inkscape:version="0.48.4 r9939"
   sodipodi:docname="icon_loadB11.svg">
  <defs
     id="defs2987" />
  <sodipodi:namedview
     id="base"
     pagecolor="#ffffff"
     bordercolor="#666666"
     borderopacity="1.0"
     inkscape:pageopacity="0.0"
     inkscape:pageshadow="2"
     inkscape:zoom="7"
     inkscape:cx="13.275781"
     inkscape:cy="23.210736"
     inkscape:current-layer="layer1"
     showgrid="true"
     inkscape:grid-bbox="true"
     inkscape:document-units="px"
     inkscape:window-width="1680"
     inkscape:window-height="1026"
     inkscape:window-x="1680"
     inkscape:window-y="24"
     inkscape:window-maximized="1"
     showguides="true"
     inkscape:guide-bbox="true" />
  <metadata
     id="metadata2990">
    <rdf:RDF>
      <cc:Work
         rdf:about="">
        <dc:format>image/svg+xml</dc:format>
        <dc:type
           rdf:resource="http://purl.org/dc/dcmitype/StillImage" />
        <dc:title></dc:title>
      </cc:Work>
    </rdf:RDF>
  </metadata>
  <g
     id="layer1"
     inkscape:label="Layer 1"
     inkscape:groupmode="layer">
    <path
       sodipodi:type="star"
       style="fill:#000000;stroke:#000000;stroke-width:2.5;stroke-linecap:butt;stroke-linejoin:round;stroke-miterlimit:4;stroke-opacity:1;stroke-dasharray:none;stroke-dashoffset:0"
       id="path4922"
       sodipodi:sides="3"
       sodipodi:cx="1.7142857"
       sodipodi:cy="14.714286"
       sodipodi:r1="15.429233"
       sodipodi:r2="7.7146163"
       sodipodi:arg1="-1.5800553"
       sodipodi:arg2="-0.53285777"
       inkscape:flatsided="false"
       inkscape:rounded="0"
       inkscape:randomized="0"
       d="M 1.5714289,-0.71428539 8.3593388,10.795284 15.147249,22.304854 1.7857143,22.428571 -11.575821,22.552289 -5.0021959,10.919002 z"
       inkscape:transform-center-x="0.99935305"
       inkscape:transform-center-y="-2.3263601"
       transform="matrix(0.82623981,0.13719586,-0.13719586,0.82623981,24.799772,12.469217)" />
    <path
       transform="matrix(0.34739457,0.19321566,-0.19321566,0.34739457,10.157083,28.793777)"
       inkscape:transform-center-y="-0.077511232"
       inkscape:transform-center-x="1.4657072"
       d="M 1.5714289,-0.71428539 8.3593388,10.795284 15.147249,22.304854 1.7857143,22.428571 -11.575821,22.552289 -5.0021959,10.919002 z"
       inkscape:randomized="0"
       inkscape:rounded="0"
       inkscape:flatsided="false"
       sodipodi:arg2="-0.53285777"
       sodipodi:arg1="-1.5800553"
       sodipodi:r2="7.7146163"
       sodipodi:r1="15.429233"
       sodipodi:cy="14.714286"
       sodipodi:cx="1.7142857"
       sodipodi:sides="3"
       id="path4924"
       style="fill:#000000;stroke:#000000;stroke-width:2.5;stroke-linecap:butt;stroke-linejoin:round;stroke-miterlimit:4;stroke-opacity:1;stroke-dasharray:none;stroke-dashoffset:0"
       sodipodi:type="star" />
    <path
       sodipodi:type="star"
       style="fill:#000000;stroke:#000000;stroke-width:2.5;stroke-linecap:butt;stroke-linejoin:round;stroke-miterlimit:4;stroke-opacity:1;stroke-dasharray:none;stroke-dashoffset:0"
       id="path4926"
       sodipodi:sides="3"
       sodipodi:cx="1.7142857"
       sodipodi:cy="14.714286"
       sodipodi:r1="15.429233"
       sodipodi:r2="7.7146163"
       sodipodi:arg1="-1.5800553"
       sodipodi:arg2="-0.53285777"
       inkscape:flatsided="false"
       inkscape:rounded="0"
       inkscape:randomized="0"
       d="M 1.5714289,-0.71428539 8.3593388,10.795284 15.147249,22.304854 1.7857143,22.428571 -11.575821,22.552289 -5.0021959,10.919002 z"
       inkscape:transform-center-x="1.0129665"
       inkscape:transform-center-y="-0.5700057"
       transform="matrix(-0.07026686,-0.39125163,0.39125163,-0.07026686,18.415911,8.512738)" />
    <path
       sodipodi:type="star"
       style="fill:#000000;stroke:#000000;stroke-width:2.5;stroke-linecap:butt;stroke-linejoin:round;stroke-miterlimit:4;stroke-opacity:1;stroke-dasharray:none;stroke-dashoffset:0"
       id="path4928"
       sodipodi:sides="3"
       sodipodi:cx="1.7142857"
       sodipodi:cy="14.714286"
       sodipodi:r1="15.429233"
       sodipodi:r2="7.7146163"
       sodipodi:arg1="-1.5800553"
       sodipodi:arg2="-0.53285777"
       inkscape:flatsided="false"
       inkscape:rounded="0"
       inkscape:randomized="0"
       d="M 1.5714289,-0.71428539 8.3593388,10.795284 15.147249,22.304854 1.7857143,22.428571 -11.575821,22.552289 -5.0021959,10.919002 z"
       inkscape:transform-center-x="1.5122575"
       inkscape:transform-center-y="0.024270052"
       transform="matrix(0.34079108,0.20463798,-0.20463798,0.34079108,41.050761,29.585648)" />
  </g>
</svg>
