<?xml version="1.0" encoding="UTF-8" standalone="no"?>
<!-- Created with Inkscape (http://www.inkscape.org/) -->

<svg
   xmlns:dc="http://purl.org/dc/elements/1.1/"
   xmlns:cc="http://creativecommons.org/ns#"
   xmlns:rdf="http://www.w3.org/1999/02/22-rdf-syntax-ns#"
   xmlns:svg="http://www.w3.org/2000/svg"
   xmlns="http://www.w3.org/2000/svg"
   xmlns:sodipodi="http://sodipodi.sourceforge.net/DTD/sodipodi-0.dtd"
   xmlns:inkscape="http://www.inkscape.org/namespaces/inkscape"
   width="48px"
   height="48px"
   id="svg2985"
   version="1.1"
   inkscape:version="0.48.4 r9939"
   sodipodi:docname="icon_right.svg">
  <defs
     id="defs2987" />
  <sodipodi:namedview
     id="base"
     pagecolor="#ffffff"
     bordercolor="#666666"
     borderopacity="1.0"
     inkscape:pageopacity="0.0"
     inkscape:pageshadow="2"
     inkscape:zoom="7"
     inkscape:cx="24.612011"
     inkscape:cy="34.938133"
     inkscape:current-layer="layer1"
     showgrid="true"
     inkscape:grid-bbox="true"
     inkscape:document-units="px"
     inkscape:window-width="1680"
     inkscape:window-height="1026"
     inkscape:window-x="1680"
     inkscape:window-y="24"
     inkscape:window-maximized="1" />
  <metadata
     id="metadata2990">
    <rdf:RDF>
      <cc:Work
         rdf:about="">
        <dc:format>image/svg+xml</dc:format>
        <dc:type
           rdf:resource="http://purl.org/dc/dcmitype/StillImage" />
        <dc:title></dc:title>
      </cc:Work>
    </rdf:RDF>
  </metadata>
  <g
     id="layer1"
     inkscape:label="Layer 1"
     inkscape:groupmode="layer">
    <path
       style="fill:#000000;stroke:#000000;stroke-width:3.29091382;stroke-linecap:butt;stroke-linejoin:round;stroke-miterlimit:4;stroke-opacity:1;stroke-dasharray:none;stroke-dashoffset:0"
       id="path3970"
       d="m 43.956585,14.431945 c -1.629771,1.078091 -3.144003,2.317622 -4.658944,3.548384 -2.795038,2.323086 -5.246447,5.017972 -7.652596,7.731337 -2.047818,2.394259 -4.04763,4.828777 -6.125873,7.196897 -0.136047,0.147477 -0.931843,1.011855 -1.123527,1.213886 -0.168129,0.177205 -0.559908,0.711058 -0.884087,0.68605 -0.07523,-0.0058 -0.137776,-0.06159 -0.206664,-0.09238 -0.09164,-0.09312 -0.190026,-0.180063 -0.27494,-0.279361 C 22.480529,33.794263 22.032239,33.05551 21.549121,32.364895 20.659109,31.092626 20.827006,31.33952 19.840632,30.011925 17.31166,26.657478 14.18519,23.833846 11.063925,21.048356 9.102035,19.343071 7.1526872,17.62354 5.1974452,15.910671 c 0,0 -1.342194,2.235321 -1.342194,2.235321 l 0,0 c 2.025263,1.606401 4.012573,3.259382 5.9770518,4.939598 3.136743,2.761347 6.236137,5.611883 8.667325,9.037589 0.922309,1.319863 0.823874,1.151897 1.648312,2.428423 0.472581,0.731727 0.895954,1.537355 1.452707,2.212421 0.104314,0.12648 0.229211,0.23447 0.343816,0.351705 0.254649,0.126036 0.398672,0.269193 0.699175,0.150863 0.229176,-0.09024 0.611066,-0.530377 0.741824,-0.672702 0.39206,-0.42674 0.763012,-0.8726 1.162229,-1.292898 2.088183,-2.423801 4.111265,-4.9021 6.181999,-7.340717 2.374144,-2.689522 4.796034,-5.359711 7.571767,-7.645827 1.464865,-1.171762 2.924039,-2.371087 4.534211,-3.34098 0,0 1.120917,-2.541522 1.120917,-2.541522 z"
       inkscape:connector-curvature="0" />
  </g>
</svg>
