<?xml version="1.0" encoding="UTF-8" standalone="no"?>
<!-- Created with Inkscape (http://www.inkscape.org/) -->

<svg
   xmlns:dc="http://purl.org/dc/elements/1.1/"
   xmlns:cc="http://creativecommons.org/ns#"
   xmlns:rdf="http://www.w3.org/1999/02/22-rdf-syntax-ns#"
   xmlns:svg="http://www.w3.org/2000/svg"
   xmlns="http://www.w3.org/2000/svg"
   xmlns:sodipodi="http://sodipodi.sourceforge.net/DTD/sodipodi-0.dtd"
   xmlns:inkscape="http://www.inkscape.org/namespaces/inkscape"
   width="48px"
   height="48px"
   id="svg2985"
   version="1.1"
   inkscape:version="0.48.4 r9939"
   sodipodi:docname="icon_down2.svg">
  <defs
     id="defs2987" />
  <sodipodi:namedview
     id="base"
     pagecolor="#ffffff"
     bordercolor="#666666"
     borderopacity="1.0"
     inkscape:pageopacity="0.0"
     inkscape:pageshadow="2"
     inkscape:zoom="7"
     inkscape:cx="49.754868"
     inkscape:cy="34.938133"
     inkscape:current-layer="layer1"
     showgrid="true"
     inkscape:grid-bbox="true"
     inkscape:document-units="px"
     inkscape:window-width="1680"
     inkscape:window-height="1026"
     inkscape:window-x="1680"
     inkscape:window-y="24"
     inkscape:window-maximized="1" />
  <metadata
     id="metadata2990">
    <rdf:RDF>
      <cc:Work
         rdf:about="">
        <dc:format>image/svg+xml</dc:format>
        <dc:type
           rdf:resource="http://purl.org/dc/dcmitype/StillImage" />
        <dc:title />
      </cc:Work>
    </rdf:RDF>
  </metadata>
  <g
     id="layer1"
     inkscape:label="Layer 1"
     inkscape:groupmode="layer">
    <path
       style="fill:#000000;stroke:#000000;stroke-width:0;stroke-linecap:butt;stroke-linejoin:round;stroke-miterlimit:4;stroke-opacity:1;stroke-dasharray:none;stroke-dashoffset:0"
       id="path3067"
       d="m 3.0921252,7.4378886 c 1.187584,2.0409289 2.5069001,4.0017444 3.8541949,5.9396374 2.635486,3.675406 5.1626659,7.426669 7.7187849,11.157278 2.146881,3.083046 4.235344,6.207173 6.41286,9.268783 0.203248,0.277847 0.753219,1.083504 1.07416,1.354635 0.114423,0.09666 0.251254,0.189674 0.400345,0.204074 0.123088,0.01185 0.455708,-0.190375 0.346736,-0.131921 -0.563528,0.302276 -1.08539,0.739808 -1.712582,0.864564 -0.283575,0.05641 0.390088,-0.426868 0.585132,-0.640303 1.52993,-1.98058 2.919209,-4.064092 4.395717,-6.084012 1.659397,-2.270118 1.723306,-2.315816 3.496246,-4.594686 3.710992,-4.607561 7.784963,-8.907611 11.958104,-13.095531 1.281705,-1.28628 2.615968,-2.5170388 3.96464,-3.7320276 0,0 2.159674,-0.8794574 2.159674,-0.8794574 l 0,0 c -1.402742,1.2254112 -2.789331,2.4690262 -4.114192,3.77941 -4.221151,4.16811 -8.329577,8.465395 -12.040042,13.100195 -0.60427,0.784138 -1.218009,1.561071 -1.81281,2.352417 -2.009983,2.674162 -3.847501,5.468052 -5.7689,8.204789 -1.049216,1.339302 -0.621605,0.957255 -3.114823,2.225375 -0.129518,0.06588 -0.299178,0.03243 -0.435565,-0.01771 -0.646727,-0.2377 -1.021337,-1.245436 -1.420129,-1.712028 C 16.974457,31.867186 14.909227,28.733349 12.774525,25.645683 10.222799,21.910658 7.6784197,18.168874 4.9791225,14.537905 3.5867633,12.613414 2.2410435,10.65715 0.9021502,8.6952001 c 0,0 2.189975,-1.2573115 2.189975,-1.2573115 z"
       inkscape:connector-curvature="0" />
  </g>
</svg>
