<?xml version="1.0" encoding="UTF-8" standalone="no"?>
<!-- Created with Inkscape (http://www.inkscape.org/) -->

<svg
   xmlns:dc="http://purl.org/dc/elements/1.1/"
   xmlns:cc="http://creativecommons.org/ns#"
   xmlns:rdf="http://www.w3.org/1999/02/22-rdf-syntax-ns#"
   xmlns:svg="http://www.w3.org/2000/svg"
   xmlns="http://www.w3.org/2000/svg"
   xmlns:sodipodi="http://sodipodi.sourceforge.net/DTD/sodipodi-0.dtd"
   xmlns:inkscape="http://www.inkscape.org/namespaces/inkscape"
   width="48px"
   height="48px"
   id="svg2985"
   version="1.1"
   inkscape:version="0.48.4 r9939"
   sodipodi:docname="icon_up3.svg">
  <defs
     id="defs2987" />
  <sodipodi:namedview
     id="base"
     pagecolor="#ffffff"
     bordercolor="#666666"
     borderopacity="1.0"
     inkscape:pageopacity="0.0"
     inkscape:pageshadow="2"
     inkscape:zoom="7"
     inkscape:cx="24.612011"
     inkscape:cy="34.938133"
     inkscape:current-layer="layer1"
     showgrid="true"
     inkscape:grid-bbox="true"
     inkscape:document-units="px"
     inkscape:window-width="1680"
     inkscape:window-height="1026"
     inkscape:window-x="1680"
     inkscape:window-y="24"
     inkscape:window-maximized="1" />
  <metadata
     id="metadata2990">
    <rdf:RDF>
      <cc:Work
         rdf:about="">
        <dc:format>image/svg+xml</dc:format>
        <dc:type
           rdf:resource="http://purl.org/dc/dcmitype/StillImage" />
        <dc:title></dc:title>
      </cc:Work>
    </rdf:RDF>
  </metadata>
  <g
     id="layer1"
     inkscape:label="Layer 1"
     inkscape:groupmode="layer">
    <g
       id="g4086"
       transform="matrix(1.3283109,0,0,1.3283109,-7.2859262,1.1631576)">
      <path
         sodipodi:nodetypes="cccccccccc"
         inkscape:connector-curvature="0"
         d="m 35.354261,13.645696 c -1.908758,0.484998 -3.916363,0.726137 -5.896071,0.996619 -4.586823,0.611993 -9.190501,2.869513 -13.802727,3.365482 -1.860382,0.201283 -3.715818,0.42612 -5.571677,0.648636 l 1.743149,-0.964542 0,0 c 1.816441,-0.191632 3.631587,-0.389747 5.44854,-0.578749 4.647978,-0.48307 9.282964,-2.752207 13.888733,-3.42267 2.069876,-0.309083 4.166048,-0.595305 6.141287,-1.163198 z"
         id="path4080"
         style="fill:#000000;stroke:#000000;stroke-width:2.50168753;stroke-linecap:butt;stroke-linejoin:round;stroke-miterlimit:4;stroke-opacity:1;stroke-dasharray:none;stroke-dashoffset:0" />
      <path
         sodipodi:nodetypes="cccccccccc"
         inkscape:connector-curvature="0"
         d="m 36.214994,23.902239 c -2.261969,0.09109 -4.517188,0.33118 -6.774276,0.506272 -4.543643,0.353805 -9.085154,2.732834 -13.629494,3.077689 -2.241003,0.168333 -4.484406,0.300634 -6.7282791,0.423434 l 1.5212151,-1.115192 0,0 c 2.191768,-0.06652 4.382652,-0.160927 6.57032,-0.313942 4.566863,-0.319103 9.128988,-2.697994 13.68724,-3.123144 2.350925,-0.22137 4.69677,-0.501684 7.050422,-0.688167 z"
         id="path4082"
         style="fill:#000000;stroke:#000000;stroke-width:2.5;stroke-linecap:butt;stroke-linejoin:round;stroke-miterlimit:4;stroke-opacity:1;stroke-dasharray:none;stroke-dashoffset:0" />
      <path
         style="fill:#000000;stroke:#000000;stroke-width:2.5;stroke-linecap:butt;stroke-linejoin:round;stroke-miterlimit:4;stroke-opacity:1;stroke-dasharray:none;stroke-dashoffset:0"
         id="path4084"
         d="M 36.214994,5.902239 C 33.953025,5.993329 31.697806,6.233419 29.440718,6.408511 24.897075,6.762316 20.355564,9.141345 15.811224,9.4862 13.570221,9.654533 11.326818,9.786834 9.0829449,9.909634 l 1.5212151,-1.115192 0,0 C 12.795928,8.727922 14.986812,8.633515 17.17448,8.4805 21.741343,8.161397 26.303468,5.782506 30.86172,5.357356 33.212645,5.135986 35.55849,4.855672 37.912142,4.669189 z"
         inkscape:connector-curvature="0"
         sodipodi:nodetypes="cccccccccc" />
    </g>
  </g>
</svg>
